{
    "KPlugin": {
        "Authors": [
            {
                "Email": "hanyoung@protonmail.com",
                "Name": "HanY",
                "Name[ca@valencia]": "HanY",
                "Name[ca]": "HanY",
                "Name[cs]": "HanY",
                "Name[de]": "HanY",
                "Name[en_GB]": "HanY",
                "Name[eo]": "HanY",
                "Name[es]": "HanY",
                "Name[eu]": "HanY",
                "Name[fi]": "HanY",
                "Name[fr]": "HanY",
                "Name[gl]": "HanY",
                "Name[it]": "HanY",
                "Name[ka]": "HanY",
                "Name[ko]": "HanY",
                "Name[nl]": "HanY",
                "Name[pl]": "HanY",
                "Name[pt]": "HanY",
                "Name[pt_BR]": "HanY",
                "Name[sk]": "HanY",
                "Name[sl]": "HanY",
                "Name[sv]": "HanY",
                "Name[tr]": "HanY",
                "Name[uk]": "HanY",
                "Name[x-test]": "xxHanYxx",
                "Name[zh_CN]": "HanY"
            }
        ],
        "Category": "Utilities",
        "Description": "KClock widget (1x2)",
        "Description[ca@valencia]": "Giny de KClock (1x2)",
        "Description[ca]": "Giny del KClock (1x2)",
        "Description[cs]": "Widget KClock (1x2)",
        "Description[de]": "KClock-Miniprogramm (1x2)",
        "Description[en_GB]": "KClock widget (1x2)",
        "Description[eo]": "KClock-fenestraĵo (1x2)",
        "Description[es]": "Widget de KClock (1x2)",
        "Description[eu]": "KClock trepeta (1x2)",
        "Description[fi]": "KClock-sovelma (1×2)",
        "Description[fr]": "Composant graphique de KClock (1 x 2)",
        "Description[gl]": "Trebello de KClock (1×2)",
        "Description[it]": "Oggetto KClock (1x2)",
        "Description[ka]": "KClock-ის ვიჯეტი (1x2)",
        "Description[ko]": "KClock 위젯(1x2)",
        "Description[nl]": "KClock-widget (1x2)",
        "Description[pl]": "Element interfejsu KClock (1x2)",
        "Description[pt]": "Elemento do KClock (1x2)",
        "Description[pt_BR]": "Widget do KClock (1x2)",
        "Description[sk]": "KClock widget (1x2)",
        "Description[sl]": "KClock gradnik (1x2)",
        "Description[sv]": "Klockkomponent (1x2)",
        "Description[tr]": "K Saat araç takımı (1 x 2)",
        "Description[uk]": "Віджет KClock (1x2)",
        "Description[x-test]": "xxKClock widget (1x2)xx",
        "Description[zh_CN]": "KClock 挂件 (1x2)",
        "EnabledByDefault": true,
        "FormFactors": [
            "tablet",
            "handset",
            "desktop"
        ],
        "Icon": "kclock_plasmoid_1x2",
        "Id": "org.kde.plasma.kclock_1x2",
        "License": "LGPL-2.1+",
        "Name": "KClock_1x2",
        "Name[ca@valencia]": "KClock_1x2",
        "Name[ca]": "KClock_1x2",
        "Name[cs]": "KClock_1x2",
        "Name[de]": "KClock_1x2",
        "Name[en_GB]": "KClock_1x2",
        "Name[eo]": "KClock_1x2",
        "Name[es]": "KClock_1x2",
        "Name[eu]": "KClock_1x2",
        "Name[fi]": "KClock_1x2",
        "Name[fr]": "KClock_1 x 2",
        "Name[gl]": "KClock_1x2",
        "Name[it]": "KClock_1x2",
        "Name[ka]": "KClock_1x2",
        "Name[ko]": "KClock_1x2",
        "Name[nl]": "KClock_1x2",
        "Name[pl]": "KClock_1x2",
        "Name[pt]": "KClock_1x2",
        "Name[pt_BR]": "KClock_1x2",
        "Name[sk]": "KClock_1x2",
        "Name[sl]": "KClock_1x2",
        "Name[sv]": "Klocka 1x2",
        "Name[tr]": "K Saat_1 x 2",
        "Name[uk]": "KClock_1x2",
        "Name[x-test]": "xxKClock_1x2xx",
        "Name[zh_CN]": "KClock_1x2",
        "ServiceTypes": [
            "Plasma/Applet"
        ],
        "Version": "1.0",
        "Website": "https://apps.kde.org/kclock"
    },
    "X-Plasma-API": "declarativeappletscript",
    "X-Plasma-DBusActivationService": "org.kde.kclock.*",
    "X-Plasma-MainScript": "ui/main.qml",
    "X-Plasma-NotificationArea": "true",
    "X-Plasma-NotificationAreaCategory": "ApplicationStatus",
    "X-Plasma-Provides": [
        "org.kde.plasma.time"
    ]
}
